<?xml version="1.0" encoding="utf-8"?>
<!-- Generator: Adobe Illustrator 23.0.4, SVG Export Plug-In . SVG Version: 6.00 Build 0)  -->
<svg version="1.1" id="Layer_1" xmlns="http://www.w3.org/2000/svg" xmlns:xlink="http://www.w3.org/1999/xlink" x="0px" y="0px"
	 viewBox="0 0 602 290" style="enable-background:new 0 0 602 290;" xml:space="preserve">
<style type="text/css">
	.st0{fill:#2D2D2D;}
	.st1{fill:#7EBF42;}
	.st2{fill:#AFAFAF;}
</style>
<path class="st0" d="M51,89.3l7.3-10.2c4.4,4.6,11.3,8.5,20,8.5c7.3,0,10.9-3.4,10.9-7c0-11.1-36.2-3.5-36.2-27.1
	c0-10.5,9-19.1,23.8-19.1c10,0,18.3,3,24.5,8.8L93.9,53c-5.1-4.8-11.9-7-18.3-7c-5.7,0-8.9,2.5-8.9,6.3c0,10,36.1,3.3,36.1,26.8
	c0,11.5-8.2,20.2-25.2,20.2C65.5,99.2,56.8,95.2,51,89.3z"/>
<path class="st0" d="M108.7,66.7c0-18.9,13.8-32.5,32.8-32.5s32.9,13.6,32.9,32.5s-13.8,32.5-32.9,32.5
	C122.6,99.2,108.7,85.7,108.7,66.7z M160.6,66.7c0-11.8-7.5-20.6-19.1-20.6s-19,8.9-19,20.6s7.4,20.6,19,20.6
	C153.1,87.4,160.6,78.4,160.6,66.7z"/>
<path class="st0" d="M183.8,73.1V35.3h13.6v37.3c0,8.8,5.1,14.8,14.8,14.8s14.7-6,14.7-14.8V35.3h13.7V73c0,15.6-9.2,26.3-28.4,26.3
	S183.8,88.5,183.8,73.1z"/>
<path class="st0" d="M267.4,98.1v-51H249V35.3h50.1v11.8h-18.3v51.1L267.4,98.1L267.4,98.1z"/>
<path class="st0" d="M350.7,98.1V71.7H321v26.4h-13.4V35.3H321V60h29.7V35.3h13.5v62.8H350.7z"/>
<path class="st0" d="M376.5,98.1V35.3H421v11.8h-31.1v13.3h30.4v11.8h-30.4v14.2H421v11.8L376.5,98.1L376.5,98.1z"/>
<path class="st0" d="M467,98.1l-12.3-22.3h-9.8v22.3h-13.4V35.3h29.4c13.1,0,21.1,8.6,21.1,20.3c0,11.1-7,17.1-13.8,18.7l14.1,23.9
	H467V98.1z M468.3,55.5c0-5.3-4.1-8.5-9.4-8.5h-14v17h14C464.2,64,468.3,60.8,468.3,55.5z"/>
<path class="st0" d="M535.4,98.1l-30-41v41H492V35.3h13.8l29.1,39.5V35.3h13.4v62.8H535.4z"/>
<path class="st0" d="M52.2,150.6c0-19.3,14.6-32.5,33.4-32.5c13.8,0,21.9,7.5,26.3,15.4l-11.5,5.7c-2.6-5.1-8.3-9.1-14.8-9.1
	c-11.4,0-19.7,8.8-19.7,20.6c0,11.9,8.3,20.6,19.7,20.6c6.5,0,12.2-4,14.8-9.1l11.5,5.6c-4.5,7.8-12.4,15.4-26.3,15.4
	C66.8,183.1,52.2,169.9,52.2,150.6z"/>
<path class="st0" d="M122.4,150.6c0-18.9,13.8-32.5,32.8-32.5s32.9,13.6,32.9,32.5s-13.8,32.5-32.9,32.5
	C136.2,183.1,122.4,169.5,122.4,150.6z M174.3,150.6c0-11.8-7.5-20.6-19.1-20.6s-19,8.9-19,20.6c0,11.7,7.4,20.6,19,20.6
	S174.3,162.3,174.3,150.6z"/>
<path class="st0" d="M202.9,156.9v-37.8h13.6v37.3c0,8.8,5.1,14.8,14.8,14.8s14.7-6,14.7-14.8v-37.3h13.7v37.7
	c0,15.6-9.2,26.3-28.4,26.3S202.9,172.3,202.9,156.9z"/>
<path class="st0" d="M320.8,181.9l-30-41v41h-13.4v-62.8h13.8l29.1,39.5v-39.5h13.4v62.8H320.8z"/>
<path class="st0" d="M366.1,181.9v-51.1h-18.4V119h50.1v11.8h-18.3v51.1H366.1z"/>
<path class="st0" d="M411.9,181.9v-62.8h13.4v62.8H411.9z"/>
<path class="st0" d="M443.1,181.9v-62.8h44.5v11.8h-31.1v13.3h30.4V156h-30.4v14.2h31.1V182h-44.5V181.9z"/>
<path class="st0" d="M499.3,173.1l7.3-10.2c4.4,4.6,11.3,8.5,20,8.5c7.3,0,10.9-3.4,10.9-7c0-11.1-36.2-3.5-36.2-27.1
	c0-10.5,9-19.1,23.8-19.1c10,0,18.3,3,24.5,8.8l-7.4,9.8c-5.1-4.7-11.9-6.9-18.3-6.9c-5.7,0-8.9,2.5-8.9,6.3
	c0,10,36.1,3.3,36.1,26.8c0,11.5-8.2,20.2-25.2,20.2C513.8,183.1,505.1,179,499.3,173.1z"/>
<path class="st1" d="M78.4,216.6c0,3.2-1.3,4.9-2.6,4.9c-1.5,0-2.6-0.4-6.4-2.2c-1.8,1.3-3.6,3.3-5.1,5.4v13.1
	c0,6.3,0.7,7.1,4.2,7.3l3.2,0.2v2.5c-1.7,0-7.3-0.1-10.5-0.1c-3.2,0-7,0.1-8.8,0.1v-2.5l1.8-0.2c3.2-0.4,3.7-1.3,3.7-7.3v-14.5
	c0-3.4-0.5-4.2-3.2-5.2l-2-0.8v-1.8l10.5-2.3l1.1,0.8v6.8c4.2-5.7,6.6-7.8,10.2-7.8C77.1,213.1,78.4,214.3,78.4,216.6z"/>
<path class="st1" d="M132.1,228.6h-23.7v0.6c0.1,9.4,4.8,15,11.3,15c4.7,0,7.3-1.6,10.5-4.9l1.9,1.6c-3.3,4.7-8.1,7.9-14.5,7.9
	c-9.3,0-15.8-6.7-15.8-17c0-11.2,8.1-18.8,16.5-18.8C127.4,213,132.2,219,132.1,228.6z M124.7,226.1c-0.4-6.5-2.8-10.3-7.5-10.3
	c-4.3,0-8.1,3.4-8.8,10.3H124.7z"/>
<path class="st1" d="M183.1,238.5c0,6.3-5.6,10.3-13.6,10.3c-4.2,0-7.6-0.8-11-2.3V239h3.9c0.9,4.9,3.4,7.1,7.8,7.1c4.4,0,7-2,7-5.5
	c0-3.3-1.6-4.9-7.8-6.9c-6.6-2.3-10.7-4.5-10.7-10.7c0-6.1,5.4-9.9,12.6-9.9c4.7,0,7.9,1.2,9.7,2.1v7.5h-3.9
	c-0.9-4.5-2.5-6.9-6.6-6.9c-3.6,0-5.9,2-5.9,5.2c0,3.6,1.6,4.9,7.8,7.1C179.5,230.6,183.1,232.5,183.1,238.5z"/>
<path class="st1" d="M226.1,247.9c-1.8,0-5.6-0.1-8.7-0.1c-3.2,0-7.1,0.1-8.8,0.1v-2.5l1.8-0.2c3.2-0.4,3.7-1.3,3.7-7.3v-14.5
	c0-3.4-0.5-4.2-3.2-5.2l-2-0.8v-1.8l10.6-2.3l1.1,0.8v23.7c0,6.1,0.5,7,3.7,7.3l1.8,0.2L226.1,247.9L226.1,247.9z M221.2,200.9
	c0,2.7-2,4.7-4.7,4.7c-2.5,0-4.7-2-4.7-4.7c0-2.6,2.1-4.6,4.7-4.6C219.1,196.3,221.2,198.3,221.2,200.9z"/>
<path class="st1" d="M287.8,247.9c-1.7,0-5.1-0.1-8.2-0.1s-6.9,0.1-8.6,0.1v-2.5l1.8-0.2c2.8-0.4,3.5-1.2,3.5-7.3V226
	c0-5.9-2.5-8.3-6.6-8.3c-3.1,0-5.8,1.4-8.3,4v16.1c0,6.1,0.6,7,3.5,7.3l1.8,0.2v2.5c-1.8,0-5.3-0.1-8.4-0.1c-3.2,0-7,0.1-8.8,0.1
	v-2.5l1.8-0.2c3.3-0.4,3.7-1.3,3.7-7.3v-14.5c0-3.4-0.5-4.2-3.3-5.2l-2-0.8v-1.8l10.5-2.3l1.1,0.8v4.2c3.6-3.1,6.4-5.1,10.7-5.1
	c6.4,0,10.5,3.7,10.5,10.9v13.8c0,6.1,0.6,7,3.5,7.3l1.8,0.2L287.8,247.9L287.8,247.9z"/>
<path class="st1" d="M336.8,238.5c0,6.3-5.6,10.3-13.6,10.3c-4.2,0-7.6-0.8-11-2.3V239h3.9c0.9,4.9,3.4,7.1,7.8,7.1s7-2,7-5.5
	c0-3.3-1.6-4.9-7.8-6.9c-6.6-2.3-10.7-4.5-10.7-10.7c0-6.1,5.4-9.9,12.6-9.9c4.7,0,7.9,1.2,9.7,2.1v7.5h-3.9
	c-0.9-4.5-2.5-6.9-6.6-6.9c-3.6,0-5.9,2-5.9,5.2c0,3.6,1.6,4.9,7.8,7.1C333.2,230.6,336.8,232.5,336.8,238.5z"/>
<path class="st2" d="M390.8,241.6c0-7.3-5.9-13.2-13.2-13.2c-7.3,0-13.2,5.9-13.2,13.2c0,3.1,1.1,5.9,2.8,8.1h20.7
	C389.7,247.5,390.8,244.7,390.8,241.6z"/>
<path class="st2" d="M389,205.6c-1.1,0.7-2.7,1.4-3.8,2.2c-1.9,1.4-1.9,2.9,0.1,4.1c1.7,1,3.6,1.9,5.4,2.5
	c6.3,1.9,12.6,3.6,18.9,5.3c11.2,3,22.3,6.1,33,10.7c6.7,2.9,13.3,6.2,19.2,10.9c2.5,2,4.9,4.2,6.8,6.9c0.2,0.3,0.8,1.4,0.8,1.4
	h-70.6c0,0,0.5-0.5,0.7-0.7c2.2-2.1,4-4.4,5.2-7.3c1.3-3.1,1.7-6.3,0.6-9.6c-1-3.1-3-5.3-5.8-6.6c-3.9-1.9-8.1-3.2-12.3-4.4
	c-5.2-1.5-10.5-3-15.7-4.6c-0.6-0.2-1.2-0.4-1.7-0.8c-0.9-0.6-1-1.4-0.3-2.2c0.5-0.6,1.1-1.2,1.7-1.6c2.8-2,5.8-3.2,8.9-4.5
	c1.4-0.6,2.8-1.2,4.3-1.7H389z"/>
</svg>
