{
    "domains": [
        "www.scresins.co.uk",
        "scresins.co.uk"
    ],
    "nginx": {
        "config": "drupal.conf",
        "documentRoot": "docroot",
        "ssl": false
    },
    "php": {
        "version": "7.3"
    },
    "mysql": {
        "enabled": true
    },
    "files": {
        "paths": [
            "docroot/sites/default/files"
        ]
    },
    "cron": [
        "5 * * * * root curl http{%if config.nginx.ssl%}s{%endif%}://{{config.domains[0]}}/cron/{{DRUPAL_CRON_KEY}}"
    ],
    "heartbeats": [
        {
            "urls": [
                "/"
            ]
        }
    ]
}
